pe\gob\minedu\escale\rest\client\UgelClient.class
pe\gob\minedu\escale\rest\client\DreClient$1.class
pe\gob\minedu\escale\rest\client\domain\Caracteristicas.class
pe\gob\minedu\escale\rest\client\domain\Codigo.class
pe\gob\minedu\escale\rest\client\domain\Gestiones.class
pe\gob\minedu\escale\rest\client\EolActividadesClient.class
pe\gob\minedu\escale\rest\client\NivelModalidadClient$1.class
pe\gob\minedu\escale\rest\client\domain\Caracteristica.class
pe\gob\minedu\escale\rest\client\domain\Genero.class
pe\gob\minedu\escale\rest\client\domain\NivelesModalidades.class
pe\gob\minedu\escale\rest\client\EolActividadClient.class
pe\gob\minedu\escale\rest\client\InstitucionEducativaClient$5.class
pe\gob\minedu\escale\rest\client\domain\CoordinadorPrograma.class
pe\gob\minedu\escale\rest\client\domain\NivelModalidad.class
pe\gob\minedu\escale\rest\client\NivelModalidadClient.class
pe\gob\minedu\escale\rest\client\domain\Igel.class
pe\gob\minedu\escale\rest\client\domain\SesionUsuario.class
pe\gob\minedu\escale\rest\client\domain\Generos.class
pe\gob\minedu\escale\rest\client\domain\DireccionRegional.class
pe\gob\minedu\escale\rest\client\domain\Area.class
pe\gob\minedu\escale\rest\client\domain\Instituciones.class
pe\gob\minedu\escale\rest\client\EolIEsCensoClient$1.class
pe\gob\minedu\escale\rest\client\domain\Ugel.class
pe\gob\minedu\escale\rest\client\domain\Provincia.class
pe\gob\minedu\escale\rest\client\domain\EolPeriodoConverter.class
pe\gob\minedu\escale\rest\client\UgelClient$1.class
pe\gob\minedu\escale\rest\constant\Constantes.class
pe\gob\minedu\escale\rest\util\ParmaeClient.class
pe\gob\minedu\escale\rest\client\domain\InstitucionEducativa.class
pe\gob\minedu\escale\rest\client\domain\EstadoPadron.class
pe\gob\minedu\escale\rest\client\domain\GestionDependencia_1.class
pe\gob\minedu\escale\rest\client\PadronClient.class
pe\gob\minedu\escale\auth\client\OAuth2Client.class
pe\gob\minedu\escale\rest\client\domain\Gestion.class
pe\gob\minedu\escale\rest\client\InstitucionEducativaClient.class
pe\gob\minedu\escale\rest\client\domain\Dre.class
pe\gob\minedu\escale\rest\client\InstitucionEducativaClient$3.class
pe\gob\minedu\escale\rest\client\domain\Codigos.class
pe\gob\minedu\escale\rest\client\EolCedulasClient.class
pe\gob\minedu\escale\rest\client\domain\Areas.class
pe\gob\minedu\escale\rest\client\InstitucionEducativaClient$2.class
pe\gob\minedu\escale\rest\client\domain\Formas.class
pe\gob\minedu\escale\rest\client\domain\InstitucionEducativaIE.class
pe\gob\minedu\escale\rest\client\EolActividadesClient$1.class
pe\gob\minedu\escale\rest\client\domain\InstitucionesEducativas.class
pe\gob\minedu\escale\rest\client\domain\Region.class
pe\gob\minedu\escale\rest\client\EolActividadClient$1.class
pe\gob\minedu\escale\rest\client\EolCedulasClient$1.class
pe\gob\minedu\escale\rest\client\domain\Forma.class
pe\gob\minedu\escale\rest\client\domain\GestionesDependencias.class
pe\gob\minedu\escale\rest\client\DreClient.class
pe\gob\minedu\escale\rest\client\InstitucionEducativaClient$4.class
pe\gob\minedu\escale\rest\client\domain\GestionDependencia.class
pe\gob\minedu\escale\rest\client\domain\EolCedulasConverter.class
pe\gob\minedu\escale\rest\client\domain\EolActividadesConverter.class
pe\gob\minedu\escale\rest\client\domain\EolIEsCensoConverter.class
pe\gob\minedu\escale\rest\client\domain\Distrito.class
pe\gob\minedu\escale\rest\client\EolIEsCensoClient.class
pe\gob\minedu\escale\rest\client\InstitucionEducativaClient$1.class
