<?xml version="1.0" encoding="UTF-8"?>
<session version="1.0">
<refactoring comment="Delete 15 resources" deleteContents="false" description="Delete 15 resources" element1="/eol-admin-ejb" element10="/eol-estadistica-ws" element11="/eol-padron-ejb" element12="/eol-padron-importar-dao" element13="/eol-padron-ws" element14="/eol-war" element15="/eol-ws" element2="/eol-admin-ws" element3="/eol-app" element4="/eol-auth-ejb" element5="/eol-auth-ws" element6="/eol-client" element7="/eol-common-util" element8="/eol-ejb" element9="/eol-estadistica-ejb" flags="7" id="org.eclipse.ltk.core.refactoring.delete.resources" resources="15" stamp="1558100279511"/>
</session>